{
    "KPlugin": {
        "Description": "Manages services that provide status notifier user interfaces",
        "Description[ar]": "أدِر الخدمات التي توفّر واجهات مستخدِم لمُخطِر الحالة",
        "Description[az]": "İstifadəçi interfeysinin vəziyyəti haqqında bildirişləri təmin edən xidmətlər menecri",
        "Description[bg]": "Управлява услуги, които предоставят потребителски интерфейс за известия на състояние",
        "Description[ca@valencia]": "Gestiona serveis que proporcionen notificacions d'estat en les interfícies d'usuari",
        "Description[ca]": "Gestiona serveis que proporcionen notificacions d'estat a les interfícies d'usuari",
        "Description[cs]": "Nastavení služeb poskytujících rozhraní pro oznamování stavu",
        "Description[da]": "Håndterer tjenester der giver brugerflader til statusbekendtgørelser",
        "Description[de]": "Verwaltet Dienste, die eine Schnittstelle für Status-Informationen bereitstellen",
        "Description[en_GB]": "Manages services that provide status notifier user interfaces",
        "Description[es]": "Gestiona servicios que proporcionan interfaces de usuario para el notificador de estado",
        "Description[eu]": "Egora-jakinarazlerako erabiltzaile-interfazeak hornitzen dituen zerbitzuak kudeatzen ditu",
        "Description[fi]": "Hallitsee tilailmoitinkäyttöliittymän tarjoavia palveluja",
        "Description[fr]": "Gère les services fournissant des interfaces utilisateurs pour la notification d'état",
        "Description[hu]": "Kezeli az állapotértesítést nyújtó szolgáltatásokat",
        "Description[ia]": "Il gere servicios que forni interfacies de usator pro notificator de stato",
        "Description[id]": "Mengelola layanan yang menyediakan penotifikasi status antarmuka pengguna",
        "Description[is]": "Stjórnar þjónustum sem sjá um stöðutilkynningar notandaviðmóta",
        "Description[it]": "Gestisce i servizi che forniscono le interfacce utente al notificatore di stato",
        "Description[ja]": "ステータス通知ユーザインターフェースを提供するサービスを管理",
        "Description[ko]": "상태 알림 인터페이스를 제공하는 서비스를 관리합니다",
        "Description[lt]": "Valdo tarnybas, teikiančias būsenos pranešėjo naudotojo sąsajas",
        "Description[nl]": "Beheert services die statusmeldingen leveren aan gebruikersinterfaces",
        "Description[nn]": "Handterer tenester som tilbyr brukargrensesnitt for statusvarslingar",
        "Description[pa]": "ਸਰਵਿਸਾਂ ਦਾ ਇੰਤਜ਼ਾਮ ਕਰਦਾ ਹੈ, ਜੋ ਕਿ ਹਾਲਤ ਨੋਟੀਫਾਇਰ ਵਰਤੋਂਕਾਰ ਇੰਟਰਫੇਸ ਦਿੰਦਾ ਹੈ",
        "Description[pl]": "Zarządzanie usługami, które dostarczają powiadomień o stanie poprzez interfejs użytkownika",
        "Description[pt]": "Faz a gestão dos serviços que fornecem interface de notificação do estado",
        "Description[pt_BR]": "Gerencia os serviços que fornecem interfaces de notificação do status",
        "Description[ro]": "Administrează serviciile care furnizează interfețe utilizator pentru notificări de stare",
        "Description[ru]": "Управление службами интерфейсов уведомлений о состоянии",
        "Description[sk]": "Spravuje služby, ktoré poskytujú užívateľské rozhrania pre oznámenie stavu",
        "Description[sl]": "Upravlja s storitvami, ki ponujajo uporabniške vmesnike obvestilnika o stanju",
        "Description[sv]": "Hanterar tjänster som tillhandahåller användargränssnitt för statusunderrättelser",
        "Description[ta]": "நிலையை அறிவிக்கும் (SNI) சேவைகளை நிர்வகிக்கும்",
        "Description[tr]": "Durum bildirimi kullanıcı arayüzünü sunan hizmetleri yönetir",
        "Description[uk]": "Керує службами інтерфейсів користувача для сповіщення про стан",
        "Description[vi]": "Quản lí các dịch vụ cung cấp giao diện thông báo trạng thái",
        "Description[x-test]": "xxManages services that provide status notifier user interfacesxx",
        "Description[zh_CN]": "管理提供状态通知用户界面的服务",
        "Name": "Status Notifier Manager",
        "Name[ar]": "مدير مُخطِر الحالة",
        "Name[az]": "Vəziyyət Bildirişləri Meneceri",
        "Name[bg]": "Управление на Известия на състояние",
        "Name[bn]": "স্ট্যাটাস বিজ্ঞপ্তি ম্যানেজার",
        "Name[bs]": "Menadžer izveštavača o stanju",
        "Name[ca@valencia]": "Gestor del notificador d'estat",
        "Name[ca]": "Gestor del notificador d'estat",
        "Name[cs]": "Správce oznamování stavu",
        "Name[da]": "Håndtering af statusbekendtgørelser",
        "Name[de]": "Statusbenachrichtigungs-Verwaltung",
        "Name[el]": "Διαχειριστής των ειδοποιήσεων κατάστασης",
        "Name[en_GB]": "Status Notifier Manager",
        "Name[es]": "Gestor del notificador del estado",
        "Name[et]": "Oleku märguannete haldur",
        "Name[eu]": "Egoera-jakinarazlearen kudeatzailea",
        "Name[fi]": "Tilailmoittimen hallinta",
        "Name[fr]": "Gestionnaire du notificateur d'état",
        "Name[gl]": "Xestor das notificacións de estado",
        "Name[he]": "מנהל שירותי הודעות מצב",
        "Name[hi]": "स्थिति संकेत प्रबंधक",
        "Name[hr]": "Upravitelj glasnika stanja",
        "Name[hu]": "Állapotértesítés-kezelő",
        "Name[ia]": "Gerente de notificator de stato",
        "Name[id]": "Pengelola Penotifikasi Status",
        "Name[is]": "Stöðutilkynningaþjónn",
        "Name[it]": "Gestore del notificatore di stato",
        "Name[ja]": "ステータス通知マネージャ",
        "Name[ka]": "სტატუსის შეტყობინების მართვა",
        "Name[kk]": "Күй-жайы туралы құлақтандырғыш менеджері",
        "Name[km]": "កម្មវិធី​គ្រប់គ្រង​ធាតុជូន​ដំណឹង​អំពី​ស្ថានភាព",
        "Name[kn]": " ಸ್ಥಿತಿ ಸೂಚನಾ ವ್ಯವಸ್ಥಾಪಕ",
        "Name[ko]": "상태 알림 관리자",
        "Name[lt]": "Būsenos pranešėjo tvarkytuvė",
        "Name[lv]": "Statusa paziņojumu pārvaldītājs",
        "Name[ml]": "അവസ്ഥ അറിയിപ്പു കാര്യസ്ഥന്‍",
        "Name[mr]": "स्थिती निदर्शक व्यवस्थापक",
        "Name[nb]": "Håndtering av statusvarsler",
        "Name[nds]": "Statusbescheed-Beluern",
        "Name[nl]": "Statusmeldingenbeheerder",
        "Name[nn]": "Handsaming av statusvarslingar",
        "Name[pa]": "ਹਾਲਤ ਨੋਟੀਫਾਇਰ ਮੈਨੇਜਰ",
        "Name[pl]": "Zarządzanie powiadomieniami o stanie",
        "Name[pt]": "Gestor das Notificações de Estado",
        "Name[pt_BR]": "Gerenciador de notificações de status",
        "Name[ro]": "Gestionar notificator de stare",
        "Name[ru]": "Диспетчер уведомлений о состоянии",
        "Name[si]": "තත්ව දැන්වීමේ කළමනාකරු",
        "Name[sk]": "Správca oznámení stavu",
        "Name[sl]": "Upravljalnik obvestilnika o stanju",
        "Name[sr@ijekavian]": "Менаџер извјештавача о стању",
        "Name[sr@ijekavianlatin]": "Menadžer izvještavača o stanju",
        "Name[sr@latin]": "Menadžer izveštavača o stanju",
        "Name[sr]": "Менаџер извештавача о стању",
        "Name[sv]": "Hantering av statusunderrättelser",
        "Name[ta]": "நிலை அறிவிப்பு மேலாளர்",
        "Name[th]": "ตัวจัดการการแจ้งสถานะให้ทราบ",
        "Name[tr]": "Durum Bildirim Yöneticisi",
        "Name[ug]": "ھالەت بىلدۈرگۈ باشقۇرغۇچ",
        "Name[uk]": "Керування сповіщенням про стан",
        "Name[vi]": "Trình quản lí thông báo trạng thái",
        "Name[wa]": "Manaedjeu do notifiaedje d' estat",
        "Name[x-test]": "xxStatus Notifier Managerxx",
        "Name[zh_CN]": "状态通知管理器",
        "Name[zh_TW]": "狀態通知管理員"
    },
    "X-KDE-Kded-autoload": true,
    "X-KDE-Kded-load-on-demand": false,
    "X-KDE-Kded-phase": 1
}
