{
    "KPlugin": {
        "Authors": [
            {
                "Email": "",
                "Name": ""
            }
        ],
        "Category": "",
        "Description": "Mouse position and cursor",
        "Description[ar]": "موقع ومؤشّر الفأرة",
        "Description[az]": "Siçan və kursorun yeri",
        "Description[bg]": "Позиция на мишката и курсора",
        "Description[ca@valencia]": "Posició del ratolí i del cursor",
        "Description[ca]": "Posició del ratolí i del cursor",
        "Description[cs]": "Pozice myši a kurzoru",
        "Description[da]": "Museposition og markør",
        "Description[de]": "Mausposition und -zeiger",
        "Description[en_GB]": "Mouse position and cursor",
        "Description[es]": "Posición del ratón y cursor",
        "Description[eu]": "Saguaren kokalekua eta kurtsorea",
        "Description[fi]": "Hiiren sijainti ja osoitin",
        "Description[fr]": "Position et curseur de la souris",
        "Description[hu]": "Egérmutató-pozíció",
        "Description[ia]": "Position e cursor del mus",
        "Description[id]": "Posisi mouse dan kursor",
        "Description[is]": "Staðsetning músar og bendils",
        "Description[it]": "Posizione e puntatore del mouse",
        "Description[ja]": "マウスの位置とカーソル",
        "Description[ka]": "თაგუნას მდებარეობა და კურსორი",
        "Description[ko]": "마우스 위치와 커서",
        "Description[lt]": "Pelės pozicija ir žymeklis",
        "Description[nl]": "Muispositie en cursor",
        "Description[nn]": "Plassering av musa og peikaren",
        "Description[pa]": "ਮਾਊਸ ਸਥਿਤੀ ਅਤੇ ਕਰਸਰ",
        "Description[pl]": "Wyświetla położenie wskaźnika myszy",
        "Description[pt]": "Posição e cursor do rato",
        "Description[pt_BR]": "Posição do mouse e cursor",
        "Description[ro]": "Poziția și cursorul mausului",
        "Description[ru]": "Положение мыши и вид указателя",
        "Description[sk]": "Pozícia myši a kurzora",
        "Description[sl]": "Položaj miške in njene kazalke",
        "Description[sv]": "Musposition och pekare",
        "Description[ta]": "சுட்டியின் இருப்பிடம் மற்றும் சுட்டிக்குறி",
        "Description[tr]": "Fare konumu ve imleci",
        "Description[uk]": "Позиція вказівника миші і курсора",
        "Description[vi]": "Vị trí và con trỏ chuột",
        "Description[x-test]": "xxMouse position and cursorxx",
        "Description[zh_CN]": "鼠标位置和光标",
        "Icon": "input-mouse",
        "Id": "mouse",
        "Name": "Pointer Position",
        "Name[ar]": "موقع المؤشّر",
        "Name[az]": "Kursorun yeri",
        "Name[be@latin]": "Miesca kursora",
        "Name[bg]": "Разположение на курсора",
        "Name[bs]": "Položaj pokazivača",
        "Name[ca@valencia]": "Posició de l'apuntador",
        "Name[ca]": "Posició de l'apuntador",
        "Name[cs]": "Pozice ukazatele",
        "Name[da]": "Markørposition",
        "Name[de]": "Mausposition",
        "Name[el]": "Θέση δρομέα",
        "Name[en_GB]": "Pointer Position",
        "Name[eo]": "Pozicio de la Montrilo",
        "Name[es]": "Posición del puntero",
        "Name[et]": "Kursori asukoht",
        "Name[eu]": "Erakuslearen kokalekua",
        "Name[fi]": "Osoittimen sijainti",
        "Name[fr]": "Position du pointeur",
        "Name[fy]": "Mûsoanwizer posysje",
        "Name[ga]": "Ionad na Luiche",
        "Name[gl]": "Posición do rato",
        "Name[gu]": "દર્શક સ્થિતિ",
        "Name[he]": "מיקום סמן",
        "Name[hi]": "संकेतक स्थान",
        "Name[hne]": "पाइन्टर स्थिति",
        "Name[hr]": "Pozicija pokazivača miša",
        "Name[hsb]": "Pozicija pokazowaka",
        "Name[hu]": "Egérpozíció",
        "Name[ia]": "Position de punctator",
        "Name[id]": "Posisi Pointer",
        "Name[is]": "Staðsetning bendils",
        "Name[it]": "Posizione del puntatore",
        "Name[ja]": "マウスポインタの位置",
        "Name[ka]": "კურსორის მდებარეობა",
        "Name[kk]": "Көрсеткіш орны",
        "Name[km]": "ទីតាំង​ទស្សន៍​ទ្រនិច",
        "Name[kn]": "ಸೂಚಿಯ ಸ್ಥಳ",
        "Name[ko]": "포인터 위치",
        "Name[lt]": "Rodyklės pozicija",
        "Name[lv]": "Peles pozīcija",
        "Name[mk]": "Позиција на покажувач",
        "Name[ml]": "സൂചികയുടെ സ്ഥാനം",
        "Name[mr]": "पॉइन्टर स्थान",
        "Name[nb]": "Pekerposisjon",
        "Name[nds]": "Muuswieser-Steed",
        "Name[nl]": "Muisaanwijzerpositie",
        "Name[nn]": "Peikar­plassering",
        "Name[or]": "ସୂଚକ ସ୍ଥାନ",
        "Name[pa]": "ਪੁਆਇੰਟਰ ਸਥਿਤੀ",
        "Name[pl]": "Położenie wskaźnika myszy",
        "Name[pt]": "Posição do Cursor",
        "Name[pt_BR]": "Posição do ponteiro",
        "Name[ro]": "Poziție indicator",
        "Name[ru]": "Положение указателя мыши",
        "Name[si]": "ලක්‍ෂක ස්ථානය",
        "Name[sk]": "Pozícia kurzora",
        "Name[sl]": "Položaj kazalke",
        "Name[sr@ijekavian]": "положај показивача",
        "Name[sr@ijekavianlatin]": "položaj pokazivača",
        "Name[sr@latin]": "položaj pokazivača",
        "Name[sr]": "положај показивача",
        "Name[sv]": "Pekarposition",
        "Name[ta]": "சுட்டிக்குறியின் இருப்பிடம்",
        "Name[te]": "సూచకి స్థానము",
        "Name[th]": "ตำแหน่งของตัวชี้",
        "Name[tr]": "İşaretçi Konumu",
        "Name[ug]": "نۇربەلگە ئورنى",
        "Name[uk]": "Позиція вказівника",
        "Name[vi]": "Vị trí con trỏ",
        "Name[wa]": "Eplaeçmint do pwinteu",
        "Name[x-test]": "xxPointer Positionxx",
        "Name[zh_CN]": "指针位置",
        "Name[zh_TW]": "指標位置",
        "Website": "https://kde.org/plasma-desktop"
    }
}
